Case D: Making your own graphic for complex contrasts
…
Make a transition matrix graphic

A reasonable first attempt might be to just start by summarizing and plotting the wide_tract table we just created.

#tally the counts of tracts with particular combinations, then mutate shares of 2010 total
chg_matrix <- wide_tract %>%
  group_by(race_eth_2010, race_eth_2020) %>% 
  tally %>%
  mutate(shr = n/sum(n))

#preview what the data structure is
chg_matrix

## # A tibble: 38 × 4
## # Groups:   race_eth_2010 [7]
##    race_eth_2010   race_eth_2020              n      shr
##    <chr>           <chr>                  <int>    <dbl>
##  1 Multiethnic     Multiethnic             6837 0.808   
##  2 Multiethnic     Non-White-Mixed         1329 0.157   
##  3 Multiethnic     Predominantly Black        5 0.000591
##  4 Multiethnic     Predominantly Latinx      10 0.00118 
##  5 Multiethnic     Predominantly White        8 0.000946
##  6 Multiethnic     White-Mixed              270 0.0319  
##  7 Non-White-Mixed Multiethnic              942 0.130   
##  8 Non-White-Mixed Non-White-Mixed         5667 0.783   
##  9 Non-White-Mixed Predominantly Asian/PI    43 0.00594 
## 10 Non-White-Mixed Predominantly Black       93 0.0129  
## # … with 28 more rows
…
Eeeeeeck! Why are there all those empty tiles? Because the data structure is technically correct, but we have particular X and Y combinations that are not observed (e.g., a 2010 Predominantly Black neighborhood becoming Predominantly White by 2020).

These empty tiles are not structural zeroes (i.e., these trajectories could have happened, but just did not), so our solution will be to use a grid with all possible combinations in tandem with the summary data that we did in fact observe.

Fixing the data

We first use expand_grid() to construct the full set of possible 2010 and 2020 composition combinations.

#first, make a grid with all possible combinations
chg_grid <- expand_grid(race_eth_2010 = unique(wide_tract$race_eth_2010),
                        race_eth_2020 = unique(wide_tract$race_eth_2020))

chg_grid

## # A tibble: 49 × 2
##    race_eth_2010       race_eth_2020         
##    <chr>               <chr>                 
##  1 Predominantly White Predominantly White   
##  2 Predominantly White Non-White-Mixed       
##  3 Predominantly White White-Mixed           
##  4 Predominantly White Multiethnic           
##  5 Predominantly White Predominantly Black   
##  6 Predominantly White Predominantly Latinx  
##  7 Predominantly White Predominantly Asian/PI
##  8 Non-White-Mixed     Predominantly White   
##  9 Non-White-Mixed     Non-White-Mixed       
## 10 Non-White-Mixed     White-Mixed           
## # … with 39 more rows
…
